{"Series": 
{
    "agents_of_shield": [ 
        {"Title": "Agents of S.H.I.E.L.D"}, 
        {"Genre": "Action"}, 
        {"Cast": "Clark Gregg, Ming-Na Wen, Brett Dalton"},
        {"Rating": "7.5"}, 
        {"Trailer": "https://www.youtube.com/embed/T3T-evQZiQo"}, 
        {"Description": "The missions of the Strategic Homeland Intervention, Enforcement and Logistics Division."}
    ],
    "its_always_sunny_in_philadelphia": [ 
        {"Title": "Its Always Sunny in Philadelphia"}, 
        {"Genre": "Comedy"}, 
        {"Cast": "Charlie Day, Glenn Howerton, Rob McElhenney"},
        {"Rating": "8.8"}, 
        {"Trailer": "https://www.youtube.com/embed/_NLmdNUwkWc"}, 
        {"Description": "Five friends with big egos and slightly arrogant attitudes are the proprietors of an Irish bar in Philadelphia."}
    ],
    "westworld": [ 
        {"Title": "Westworld"}, 
        {"Genre": "Drama, Mystery, Sci-Fi"}, 
        {"Cast": "Evan Rachel Wood, Jeffrey Wright, Ed Harris"},
        {"Rating": "8.9"}, 
        {"Trailer": "https://www.youtube.com/embed/kEkZdgWu7mM"}, 
        {"Description": "Set at the intersection of the near future and the reimagined past, explore a world in which every human appetite can be indulged without consequence."}
    ],
    "stranger_things": [ 
        {"Title": "Stranger Things"}, 
        {"Genre": "Drama, Fantasy, Horror"}, 
        {"Cast": "Millie Bobby Brown, Finn Wolfhard, Winona Ryder"},
        {"Rating": "8.9"}, 
        {"Trailer": "https://www.youtube.com/embed/XWxyRG_tckY"}, 
        {"Description": "When a young boy disappears, his mother, a police chief, and his friends must confront terrifying forces in order to get him back."}
    ], 
    "game_of_thrones": [ 
        {"Title": "Game Of Thrones"}, 
        {"Genre": "Action, Adventure, Drama"}, 
        {"Cast": "Emilia Clarke, Peter Dinklage, Kit Harington"},
        {"Rating": "9.5"}, 
        {"Trailer": "https://www.youtube.com/embed/bjqEWgDVPe0"}, 
        {"Description": "Nine noble families fight for control over the mythical lands of Westeros, while an ancient enemy returns after being dormant for thousands of years."}
    ],
    "silicon_valley": [ 
        {"Title": "Silicon Valley"}, 
        {"Genre": "Comedy"}, 
        {"Cast": "Thomas Middleditch, T.J. Miller, Josh Brener"},
        {"Rating": "8.6"}, 
        {"Trailer": "https://www.youtube.com/embed/Vm4tx1O9GAc"}, 
        {"Description": "Follows the struggle of Richard Hendricks, a Silicon Valley engineer trying to build his own company called Pied Piper."}
    ], 
    "banshee": [ 
        {"Title": "Banshee"},
        {"Genre": "Action, Drama"}, 
        {"Cast": "Antony Starr, Ivana Milicevic, Ulrich Thomsen"},
        {"Rating": "8.4"}, 
        {"Trailer": "https://www.youtube.com/embed/VI7haj7HTCA"}, 
        {"Description": "An ex-con assumes the identity of a murdered sheriff in the small town of Banshee, Pennsylvania, where he has some unfinished business."}
    ],
    "star_trek_discovery": [
        {"Title": "Star Trek Discovery"}, 
        {"Genre": "Action, Sci-Fi"}, 
        {"Cast": "Sonequa Martin-Green, Doug Jones, Shazad Latif"},
        {"Rating": "7.4"}, 
        {"Trailer": "https://www.youtube.com/embed/oWnYtyNKPsA"}, 
        {"Description": "Ten years before Kirk, Spock and the Enterprise, the USS Discovery discovers new worlds and lifeforms as one Starfleet officer learns to understand all things alien."}
    ]
}
}